BSSC0021 – Week 5
…
So, our first task after importing the data is to make sure it’s tidy. In addition to the rules above, this can also include things like:

ensure the data types are correct

clean up the column names

make sure we know what the variables represent

For the .csv data we loaded, our column names can be a bit difficult to work with since they have spaces in them. We can use a function from the janitor package to clean these:

data <- data |>
  janitor::clean_names()
data

# A tibble: 127 × 6
   fiscal_year category            type            scope   description emissions
         <dbl> <chr>               <chr>           <chr>   <chr>           <dbl>
 1        2022 Corporate emissions Gross emissions Scope 1 Natural ga…     39700
 2        2022 Corporate emissions Gross emissions Scope 1 Fleet vehi…     12600
 3        2022 Corporate emissions Gross emissions Scope 1 Other (R&D…      2900
 4        2022 Corporate emissions Gross emissions Scope … Electricity         0
 5        2022 Corporate emissions Gross emissions Scope … Steam, hea…      3000
 6        2022 Corporate emissions Gross emissions Scope 3 Business t…    113500
 7        2022 Corporate emissions Gross emissions Scope 3 Employee c…    134200
 8        2022 Corporate emissions Gross emissions Scope 3 Upstream f…     10600
 9        2022 Corporate emissions Gross emissions Scope 3 Work from …      7500
10        2022 Corporate emissions Gross emissions Scope 3 Transmissi…         0
# ℹ 117 more rows
…
