Analyzing Salaries in the AI Job Market – BSSC0021
…
  # Add to the sample_means list
  low_sample_means <- append(low_sample_means, mean)
}

Now we have our sample means! Let’s combine these into a single table:

means_table <- tibble(
  "High" = high_sample_means,
  "Low" = low_sample_means,
)
means_table

# A tibble: 1,000 × 2
     High     Low
    <dbl>   <dbl>
 1 80325.  97347.
 2 84461. 100727.
 3 79401. 100062.
 4 84083.  97947.
 5 82547. 102260.
 6 89679.  99635.
 7 82624. 100586.
 8 79814.  98631.
 9 86217.  99474.
10 81497.  97962.
# ℹ 990 more rows

And reshape it into a tidy long table format. This just means we’re stacking the two columns from the table above into one column with a label for which automation risk the sample is from:

means_table <- means_table |>
  gather(key = "automation_risk", value = "sample_mean")

means_table

# A tibble: 2,000 × 2
   automation_risk sample_mean
   <chr>                 <dbl>
 1 High                 80325.
 2 High                 84461.
 3 High                 79401.
 4 High                 84083.
 5 High                 82547.
 6 High                 89679.
 7 High                 82624.
 8 High                 79814.
 9 High                 86217.
10 High                 81497.
# ℹ 1,990 more rows
…
